tick.vcd
$comment Generated by nMigen $end
$date 2020-03-08 23:02:32.734552 $end
$timescale 100 ps $end
$scope module top $end
$var wire 1 0 rst $end
$var wire 1 1 clk $end
$var wire 1 2 ce $end
$var wire 6 3 counter $end
$var wire 1 4 enable $end
$upscope $end
$enddefinitions $end
#0
$dumpvars
00
01
02
b0 3
14
$end
#100000000
11
#100000001
12
b111111 3
#200000000
01
#300000000
11
#300000001
02
b110001 3
#400000000
01
#500000000
11
#500000001
b110000 3
#600000000
01
#700000000
11
#700000001
b101111 3
#800000000
01
#899999999
11
#900000000
b101110 3
#999999999
01
#1099999999
11
#1100000000
b101101 3
#1199999999
01
#1299999999
11
#1300000000
b101100 3
#1399999999
01
#1500000000
11
#1500000001
b101011 3
#1600000000
01
#1700000000
11
#1700000001
b101010 3
#1800000000
01
#1900000000
11
#1900000001
b101001 3
#2000000000
01
#2100000000
11
#2100000001
b101000 3
#2200000000
01
#2300000000
11
#2300000001
b100111 3
#2400000000
01
#2500000000
11
#2500000001
b100110 3
#2600000000
01
#2700000000
11
#2700000001
b100101 3
#2800000000
01
#2900000000
11
#2900000001
b100100 3
#3000000000
01
#3100000000
11
#3100000001
b100011 3
#3200000000
01
#3300000000
11
#3300000001
b100010 3
#3400000000
01
#3500000000
11
#3500000001
b100001 3
#3600000000
01
#3700000000
11
#3700000001
b100000 3
#3800000000
01
#3900000000
11
#3900000001
b11111 3
#4000000000
01
#4100000000
11
#4100000001
b11110 3
#4200000000
01
#4300000000
11
#4300000001
b11101 3
#4400000000
01
#4500000000
11
#4500000001
b11100 3
#4600000000
01
#4700000000
11
#4700000001
b11011 3
#4800000000
01
#4900000000
11
#4900000001
b11010 3
#5000000000
01
#5100000000
11
#5100000001
b11001 3
#5200000000
01
#5300000000
11
#5300000001
b11000 3
#5400000000
01
#5500000000
11
#5500000001
b10111 3
#5600000000
01
#5700000000
11
#5700000001
b10110 3
#5800000000
01
#5900000000
11
#5900000001
b10101 3
#6000000000
01
#6100000000
11
#6100000001
b10100 3
#6200000000
01
#6300000000
11
#6300000001
b10011 3
#6400000000
01
#6500000000
11
#6500000001
b10010 3
#6600000000
01
#6700000000
11
#6700000001
b10001 3
#6800000000
01
#6900000000
11
#6900000001
b10000 3
#7000000000
01
#7100000000
11
#7100000001
b1111 3
#7200000000
01
#7300000000
11
#7300000001
b1110 3
#7400000000
01
#7500000000
11
#7500000001
b1101 3
#7600000000
01
#7700000000
11
#7700000001
b1100 3
#7800000000
01
#7900000000
11
#7900000001
b1011 3
#8000000000
01
#8100000000
11
#8100000001
b1010 3
#8200000000
01
#8300000000
11
#8300000001
b1001 3
#8400000000
01
#8500000000
11
#8500000001
b1000 3
#8600000000
01
#8700000000
11
#8700000001
b111 3
#8800000000
01
#8900000000
11
#8900000001
b110 3
#9000000000
01
#9100000000
11
#9100000001
b101 3
#9200000000
01
#9300000000
11
#9300000001
b100 3
#9400000000
01
#9500000000
11
#9500000001
b11 3
#9600000000
01
#9700000000
11
#9700000001
b10 3
#9800000000
01
#9900000000
11
#9900000001
b1 3
#10000000000
01
#10100000000
11
#10100000001
b0 3
#10200000000
01
#10300000000
11
#10300000001
12
b111111 3
#10400000000
01
#10500000000
11
#10500000001
02
b110001 3
#10600000000
01
#10700000000
11
#10700000001
b110000 3
#10800000000
01
#10900000000
11
#10900000001
b101111 3
#11000000000
01
#11100000000
11
#11100000001
b101110 3
#11200000000
01
#11300000000
11
#11300000001
b101101 3
#11400000000
01
#11500000000
11
#11500000001
b101100 3
#11600000000
01
#11700000000
11
#11700000001
b101011 3
#11800000000
01
#11900000000
11
#11900000001
b101010 3
#12000000000
01
#12100000000
11
#12100000001
b101001 3
#12200000000
01
#12300000000
11
#12300000001
b101000 3
#12400000000
01
#12500000000
11
#12500000001
b100111 3
#12600000000
01
#12700000000
11
#12700000001
b100110 3
#12800000000
01
#12900000000
11
#12900000001
b100101 3
#13000000000
01
#13100000000
11
#13100000001
b100100 3
#13200000000
01
#13300000000
11
#13300000001
b100011 3
#13400000000
01
#13500000000
11
#13500000001
b100010 3
#13600000000
01
#13700000000
11
#13700000001
b100001 3
#13800000000
01
#13900000000
11
#13900000001
b100000 3
#14000000000
01
#14100000000
11
#14100000001
b11111 3
#14200000000
01
#14300000000
11
#14300000001
b11110 3
#14400000000
01
#14500000000
11
#14500000001
b11101 3
#14600000000
01
#14700000000
11
#14700000001
b11100 3
#14800000000
01
#14900000000
11
#14900000001
b11011 3
#15000000000
01
#15100000000
11
#15100000001
b11010 3
#15200000000
01
#15300000000
11
#15300000001
b11001 3
#15400000000
01
#15500000000
11
#15500000001
b11000 3
#15600000000
01
#15700000000
11
#15700000001
b10111 3
#15800000000
01
#15900000000
11
#15900000001
b10110 3
#16000000000
01
#16100000000
11
#16100000001
b10101 3
#16200000000
01
#16300000000
11
#16300000001
b10100 3
#16400000000
01
#16500000000
11
#16500000001
b10011 3
#16600000000
01
#16700000000
11
#16700000001
b10010 3
#16800000000
01
#16900000000
11
#16900000001
b10001 3
#17000000000
01
#17100000000
11
#17100000001
b10000 3
#17200000000
01
#17300000000
11
#17300000001
b1111 3
#17400000000
01
#17500000000
11
#17500000001
b1110 3
#17600000000
01
#17700000000
11
#17700000001
b1101 3
#17800000000
01
#17900000000
11
#17900000001
b1100 3
#18000000000
01
#18100000000
11
#18100000001
b1011 3
#18200000000
01
#18300000000
11
#18300000001
b1010 3
#18400000000
01
#18500000000
11
#18500000001
b1001 3
#18600000000
01
#18700000000
11
#18700000001
b1000 3
#18800000000
01
#18900000000
11
#18900000001
b111 3
#19000000000
01
#19100000000
11
#19100000001
b110 3
#19200000000
01
#19300000000
11
#19300000001
b101 3
#19400000000
01
#19500000000
11
#19500000001
b100 3
#19600000000
01
#19700000000
11
#19700000001
b11 3
#19800000000
01
#19900000000
11
#19900000001
b10 3
#20000000000
01
#20100000000
11
#20100000001
b1 3
#20200000000
01
#20300000000
11
#20300000001
b0 3
#20400000000
01
#20500000000
11
#20500000001
12
b111111 3
#20600000000
01
#20699999999
11
#20700000000
02
b110001 3
#20799999999
01
#20899999999
11
#20900000000
b110000 3
#20999999999
01
#21099999999
11
#21100000000
b101111 3
#21199999999
01
#21299999999
11
#21300000000
b101110 3
#21399999999
01
#21499999999
11
#21500000000
b101101 3
#21599999999
01
#21699999999
11
#21700000000
b101100 3
#21799999999
01
#21899999999
11
#21900000000
b101011 3
#21999999999
01
#22099999999
11
#22100000000
b101010 3
#22199999999
01
#22299999999
11
#22300000000
b101001 3
#22399999999
01
#22499999999
11
#22500000000
b101000 3
#22599999999
01
#22699999999
11
#22700000000
b100111 3
#22799999999
01
#22899999999
11
#22900000000
b100110 3
#22999999999
01
#23099999999
11
#23100000000
b100101 3
#23199999999
01
#23299999999
11
#23300000000
b100100 3
#23399999999
01
#23499999999
11
#23500000000
b100011 3
#23599999999
01
#23699999999
11
#23700000000
b100010 3
#23799999999
01
#23899999999
11
#23900000000
b100001 3
#23999999999
01
#24099999999
11
#24100000000
b100000 3
#24199999999
01
#24299999999
11
#24300000000
b11111 3
#24399999999
01
#24499999999
11
#24500000000
b11110 3
#24599999999
01
#24699999999
11
#24700000000
b11101 3
#24799999999
01
#24899999999
11
#24900000000
b11100 3
#24999999999
01
#25099999999
11
#25100000000
b11011 3
#25199999999
01
#25299999999
11
#25300000000
b11010 3
#25399999999
01
#25499999999
11
#25500000000
b11001 3
#25599999999
01
#25699999999
11
#25700000000
b11000 3
#25799999999
01
#25899999999
11
#25900000000
b10111 3
#25999999999
01
#26099999999
11
#26100000000
b10110 3
#26199999999
01
#26299999999
11
#26300000000
b10101 3
#26399999999
01
#26499999999
11
#26500000000
b10100 3
#26599999999
01
#26699999999
11
#26700000000
b10011 3
#26799999999
01
#26899999999
11
#26900000000
b10010 3
#26999999999
01
#27099999999
11
#27100000000
b10001 3
#27199999999
01
#27299999999
11
#27300000000
b10000 3
#27399999999
01
#27499999999
11
#27500000000
b1111 3
#27599999999
01
#27699999999
11
#27700000000
b1110 3
#27799999999
01
#27899999999
11
#27900000000
b1101 3
#27999999999
01
#28099999999
11
#28100000000
b1100 3
#28199999999
01
#28299999999
11
#28300000000
b1011 3
#28399999999
01
#28499999999
11
#28500000000
b1010 3
#28599999999
01
#28699999999
11
#28700000000
b1001 3
#28799999999
01
#28899999999
11
#28900000000
b1000 3
#28999999999
01
#29099999999
11
#29100000000
b111 3
#29199999999
01
#29299999999
11
#29300000000
b110 3
#29399999999
01
#29499999999
11
#29500000000
b101 3
#29599999999
01
#29699999999
11
#29700000000
b100 3
#29799999999
01
#29899999999
11
#29900000000
b11 3
#29999999999
01
#30099999999
11
#30100000000
b10 3
#30199999999
01
#30299999999
11
#30300000000
b1 3
#30399999999
01
#30499999999
11
#30500000000
b0 3
#30599999999
01
#30699999999
11
#30700000000
12
b111111 3
#30799999999
01
#30899999999
11
#30900000000
02
b110001 3
#30999999999
01
#31099999999
11
#31100000000
b110000 3
#31199999999
01
#31299999999
11
#31300000000
b101111 3
#31399999999
01
#31499999999
11
#31500000000
b101110 3
#31599999999
01
#31699999999
11
#31700000000
b101101 3
#31799999999
01
#31899999999
11
#31900000000
b101100 3
#31999999999
01
#32099999999
11
#32100000000
b101011 3
#32199999999
01
#32299999999
11
#32300000000
b101010 3
#32399999999
01
#32499999999
11
#32500000000
b101001 3
#32599999999
01
#32699999999
11
#32700000000
b101000 3
#32799999999
01
#32899999999
11
#32900000000
b100111 3
#32999999999
01
#33099999999
11
#33100000000
b100110 3
#33199999999
01
#33299999999
11
#33300000000
b100101 3
#33399999999
01
#33499999999
11
#33500000000
b100100 3
#33599999999
01
#33699999999
11
#33700000000
b100011 3
#33799999999
01
#33899999999
11
#33900000000
b100010 3
#33999999999
01
#34099999999
11
#34100000000
b100001 3
#34199999999
01
#34299999999
11
#34300000000
b100000 3
#34399999999
01
#34499999999
11
#34500000000
b11111 3
#34599999999
01
#34699999999
11
#34700000000
b11110 3
#34799999999
01
#34899999999
11
#34900000000
b11101 3
#34999999999
01
#35099999999
11
#35100000000
b11100 3
#35199999999
01
#35299999999
11
#35300000000
b11011 3
#35399999999
01
#35499999999
11
#35500000000
b11010 3
#35599999999
01
#35699999999
11
#35700000000
b11001 3
#35799999999
01
#35899999999
11
#35900000000
b11000 3
#35999999999
01
#36099999999
11
#36100000000
b10111 3
#36199999999
01
#36299999999
11
#36300000000
b10110 3
#36399999999
01
#36499999999
11
#36500000000
b10101 3
#36599999999
01
#36699999999
11
#36700000000
b10100 3
#36799999999
01
#36899999999
11
#36900000000
b10011 3
#36999999999
01
#37099999999
11
#37100000000
b10010 3
#37199999999
01
#37299999999
11
#37300000000
b10001 3
#37399999999
01
#37499999999
11
#37500000000
b10000 3
#37599999999
01
#37699999999
11
#37700000000
b1111 3
#37799999999
01
#37899999999
11
#37900000000
b1110 3
#37999999999
01
#38099999999
11
#38100000000
b1101 3
#38199999999
01
#38299999999
11
#38300000000
b1100 3
#38399999999
01
#38499999999
11
#38500000000
b1011 3
#38599999999
01
#38699999999
11
#38700000000
b1010 3
#38799999999
01
#38899999999
11
#38900000000
b1001 3
#38999999999
01
#39099999999
11
#39100000000
b1000 3
#39199999999
01
#39299999999
11
#39300000000
b111 3
#39399999999
01
#39499999999
11
#39500000000
b110 3
#39599999999
01
#39699999999
11
#39700000000
b101 3
#39799999999
01
#39899999999
11
#39900000000
b100 3
#39999999999
01
#40099999999
11
#40100000000
b11 3
#40199999999
01
#40299999999
11
#40300000000
b10 3
#40399999999
01
#40499999999
11
#40500000000
b1 3
#40599999999
01
#40699999999
11
#40700000000
b0 3
#40799999999
01
#40899999999
11
#40900000000
12
b111111 3
#40999999999
01
#41099999999
11
#41100000000
02
b110001 3
#41199999999
01
#41299999999
11
#41300000000
b110000 3
#41399999999
01
#41499999999
11
#41500000000
b101111 3
#41599999999
01
#41699999999
11
#41700000000
b101110 3
#41799999999
01
#41899999999
11
#41900000000
b101101 3
#41999999999
01
#42099999999
11
#42100000000
b101100 3
#42199999999
01
#42299999999
11
#42300000000
b101011 3
#42399999999
01
#42499999999
11
#42500000000
b101010 3
#42599999999
01
#42699999999
11
#42700000000
b101001 3
#42799999999
01
#42899999999
11
#42900000000
b101000 3
#42999999999
01
#43099999999
11
#43100000000
b100111 3
#43199999999
01
#43299999999
11
#43300000000
b100110 3
#43399999999
01
#43499999999
11
#43500000000
b100101 3
#43599999999
01
#43699999999
11
#43700000000
b100100 3
#43799999999
01
#43899999999
11
#43900000000
b100011 3
#43999999999
01
#44099999999
11
#44100000000
b100010 3
#44199999999
01
#44299999999
11
#44300000000
b100001 3
#44399999999
01
#44499999999
11
#44500000000
b100000 3
#44599999999
01
#44699999999
11
#44700000000
b11111 3
#44799999999
01
#44899999999
11
#44900000000
b11110 3
#44999999999
01
#45099999999
11
#45100000000
b11101 3
#45199999999
01
#45299999999
11
#45300000000
b11100 3
#45399999999
01
#45499999999
11
#45500000000
b11011 3
#45599999999
01
#45699999999
11
#45700000000
b11010 3
#45799999999
01
#45899999999
11
#45900000000
b11001 3
#45999999999
01
#46099999999
11
#46100000000
b11000 3
#46199999999
01
#46299999999
11
#46300000000
b10111 3
#46399999999
01
#46499999999
11
#46500000000
b10110 3
#46599999999
01
#46699999999
11
#46700000000
b10101 3
#46799999999
01
#46899999999
11
#46900000000
b10100 3
#46999999999
01
#47099999999
11
#47100000000
b10011 3
#47199999999
01
#47299999999
11
#47300000000
b10010 3
#47399999999
01
#47499999999
11
#47500000000
b10001 3
#47599999999
01
#47699999999
11
#47700000000
b10000 3
#47799999999
01
#47899999999
11
#47900000000
b1111 3
#47999999999
01
#48099999999
11
#48100000000
b1110 3
#48199999999
01
#48299999999
11
#48300000000
b1101 3
#48399999999
01
#48499999999
11
#48500000000
b1100 3
#48599999999
01
#48699999999
11
#48700000000
b1011 3
#48799999999
01
#48899999999
11
#48900000000
b1010 3
#48999999999
01
#49099999999
11
#49100000000
b1001 3
#49199999999
01
#49299999999
11
#49300000000
b1000 3
#49399999999
01
#49499999999
11
#49500000000
b111 3
#49599999999
01
#49699999999
11
#49700000000
b110 3
#49799999999
01
#49899999999
11
#49900000000
b101 3
#49999999999
01
#50099999999
11
#50100000000
b100 3
#50199999999
01
#50299999999
11
#50300000000
b11 3
#50399999999
01
#50499999999
11
#50500000000
b10 3
#50599999999
01
#50699999999
11
#50700000000
b1 3
#50799999999
01
#50899999999
11
#50900000000
b0 3
#50999999999
01
#51099999999
11
#51100000000
12
b111111 3
#51199999999
01
#51299999999
11
#51300000000
02
b110001 3
#51399999999
01
#51499999999
11
#51500000000
b110000 3
#51599999999
01
#51699999999
11
#51700000000
b101111 3
#51799999999
01
#51899999999
11
#51900000000
b101110 3
#51999999999
01
#52099999999
11
#52100000000
b101101 3
#52199999999
01
#52299999999
11
#52300000000
b101100 3
#52399999999
01
#52499999999
11
#52500000000
b101011 3
#52599999999
01
#52699999999
11
#52700000000
b101010 3
#52799999999
01
#52899999999
11
#52900000000
b101001 3
#52999999999
01
#53099999999
11
#53100000000
b101000 3
#53199999999
01
#53299999999
11
#53300000000
b100111 3
#53399999999
01
#53499999999
11
#53500000000
b100110 3
#53599999999
01
#53699999999
11
#53700000000
b100101 3
#53799999999
01
#53899999999
11
#53900000000
b100100 3
#53999999999
01
#54099999999
11
#54100000000
b100011 3
#54199999999
01
#54299999999
11
#54300000000
b100010 3
#54399999999
01
#54499999999
11
#54500000000
b100001 3
#54599999999
01
#54699999999
11
#54700000000
b100000 3
#54799999999
01
#54899999999
11
#54900000000
b11111 3
#54999999999
01
#55099999999
11
#55100000000
b11110 3
#55199999999
01
#55299999999
11
#55300000000
b11101 3
#55399999999
01
#55499999999
11
#55500000000
b11100 3
#55599999999
01
#55699999999
11
#55700000000
b11011 3
#55799999999
01
#55899999999
11
#55900000000
b11010 3
#55999999999
01
#56099999999
11
#56100000000
b11001 3
#56199999999
01
#56299999999
11
#56300000000
b11000 3
#56399999999
01
#56499999999
11
#56500000000
b10111 3
#56599999999
01
#56699999999
11
#56700000000
b10110 3
#56799999999
01
#56899999999
11
#56900000000
b10101 3
#56999999999
01
#57099999999
11
#57100000000
b10100 3
#57199999999
01
#57299999999
11
#57300000000
b10011 3
#57399999999
01
#57499999999
11
#57500000000
b10010 3
#57599999999
01
#57699999999
11
#57700000000
b10001 3
#57799999999
01
#57899999999
11
#57900000000
b10000 3
#57999999999
01
#58099999999
11
#58100000000
b1111 3
#58199999999
01
#58299999999
11
#58300000000
b1110 3
#58399999999
01
#58499999999
11
#58500000000
b1101 3
#58599999999
01
#58699999999
11
#58700000000
b1100 3
#58799999999
01
#58899999999
11
#58900000000
b1011 3
#58999999999
01
#59099999999
11
#59100000000
b1010 3
#59199999999
01
#59299999999
11
#59300000000
b1001 3
#59399999999
01
#59499999999
11
#59500000000
b1000 3
#59599999999
01
#59699999999
11
#59700000000
b111 3
#59799999999
01
#59899999999
11
#59900000000
b110 3
#59999999999
01
#60099999999
11
#60100000000
b101 3
#60199999999
01
#60299999999
11
#60300000000
b100 3
#60399999999
01
#60499999999
11
#60500000000
b11 3
#60599999999
01
#60699999999
11
#60700000000
b10 3
#60799999999
01
#60899999999
11
#60900000000
b1 3
#60999999999
01
#61099999999
11
#61100000000
b0 3
#61199999999
01
#61299999999
11
#61300000000
12
b111111 3
#61399999999
01
#61499999999
11
#61500000000
02
b110001 3
#61599999999
01
#61699999999
11
#61700000000
b110000 3
#61799999999
01
#61899999999
11
#61900000000
b101111 3
#61999999999
01
#62099999999
11
#62100000000
b101110 3
#62199999999
01
#62299999999
11
#62300000000
b101101 3
#62399999999
01
#62499999999
11
#62500000000
b101100 3
#62599999999
01
#62699999999
11
#62700000000
b101011 3
#62799999999
01
#62899999999
11
#62900000000
b101010 3
#62999999999
01
#63099999999
11
#63100000000
b101001 3
#63199999999
01
#63299999999
11
#63300000000
b101000 3
#63399999999
01
#63499999999
11
#63500000000
b100111 3
#63599999999
01
#63699999999
11
#63700000000
b100110 3
#63799999999
01
#63899999999
11
#63900000000
b100101 3
#63999999999
01
#64099999999
11
#64100000000
b100100 3
#64199999999
01
#64299999999
11
#64300000000
b100011 3
#64399999999
01
#64499999999
11
#64500000000
b100010 3
#64599999999
01
#64699999999
11
#64700000000
b100001 3
#64799999999
01
#64899999999
11
#64900000000
b100000 3
#64999999999
01
#65099999999
11
#65100000000
b11111 3
#65199999999
01
#65299999999
11
#65300000000
b11110 3
#65399999999
01
#65499999999
11
#65500000000
b11101 3
#65599999999
01
#65699999999
11
#65700000000
b11100 3
#65799999999
01
#65899999999
11
#65900000000
b11011 3
#65999999999
01
#66099999999
11
#66100000000
b11010 3
#66199999999
01
#66299999999
11
#66300000000
b11001 3
#66399999999
01
#66499999999
11
#66500000000
b11000 3
#66599999999
01
#66699999999
11
#66700000000
b10111 3
#66799999999
01
#66899999999
11
#66900000000
b10110 3
#66999999999
01
#67099999999
11
#67100000000
b10101 3
#67199999999
01
#67299999999
11
#67300000000
b10100 3
#67399999999
01
#67499999999
11
#67500000000
b10011 3
#67599999999
01
#67699999999
11
#67700000000
b10010 3
#67799999999
01
#67899999999
11
#67900000000
b10001 3
#67999999999
01
#68099999999
11
#68100000000
b10000 3
#68199999999
01
#68299999999
11
#68300000000
b1111 3
#68399999999
01
#68499999999
11
#68500000000
b1110 3
#68599999999
01
#68699999999
11
#68700000000
b1101 3
#68799999999
01
#68899999999
11
#68900000000
b1100 3
#68999999999
01
#69099999999
11
#69100000000
b1011 3
#69199999999
01
#69299999999
11
#69300000000
b1010 3
#69399999999
01
#69499999999
11
#69500000000
b1001 3
#69599999999
01
#69699999999
11
#69700000000
b1000 3
#69799999999
01
#69899999999
11
#69900000000
b111 3
#69999999999
01
#70099999999
11
#70100000000
b110 3
#70199999999
01
#70299999999
11
#70300000000
b101 3
#70399999999
01
#70499999999
11
#70500000000
b100 3
#70599999999
01
#70699999999
11
#70700000000
b11 3
#70799999999
01
#70899999999
11
#70900000000
b10 3
#70999999999
01
#71099999999
11
#71100000000
b1 3
#71199999999
01
#71299999999
11
#71300000000
b0 3
#71399999999
01
#71499999999
11
#71500000000
12
b111111 3
#71599999999
01
#71699999999
11
#71700000000
02
b110001 3
#71799999999
01
#71899999999
11
#71900000000
b110000 3
#71999999999
01
#72099999999
11
#72100000000
b101111 3
#72199999999
01
#72299999999
11
#72300000000
b101110 3
#72399999999
01
#72499999999
11
#72500000000
b101101 3
#72599999999
01
#72699999999
11
#72700000000
b101100 3
#72799999999
01
#72899999999
11
#72900000000
b101011 3
#72999999999
01
#73099999999
11
#73100000000
b101010 3
#73199999999
01
#73299999999
11
#73300000000
b101001 3
#73399999999
01
#73499999999
11
#73500000000
b101000 3
#73599999999
01
#73699999999
11
#73700000000
b100111 3
#73799999999
01
#73899999999
11
#73900000000
b100110 3
#73999999999
01
#74099999999
11
#74100000000
b100101 3
#74199999999
01
#74299999999
11
#74300000000
b100100 3
#74399999999
01
#74499999999
11
#74500000000
b100011 3
#74599999999
01
#74699999999
11
#74700000000
b100010 3
#74799999999
01
#74899999999
11
#74900000000
b100001 3
#74999999999
01
#75099999999
11
#75100000000
b100000 3
#75199999999
01
#75299999999
11
#75300000000
b11111 3
#75399999999
01
#75499999999
11
#75500000000
b11110 3
#75599999999
01
#75699999999
11
#75700000000
b11101 3
#75799999999
01
#75899999999
11
#75900000000
b11100 3
#75999999999
01
#76099999999
11
#76100000000
b11011 3
#76199999999
01
#76299999999
11
#76300000000
b11010 3
#76399999999
01
#76499999999
11
#76500000000
b11001 3
#76599999999
01
#76699999999
11
#76700000000
b11000 3
#76799999999
01
#76899999999
11
#76900000000
b10111 3
#76999999999
01
#77099999999
11
#77100000000
b10110 3
#77199999999
01
#77299999999
11
#77300000000
b10101 3
#77399999999
01
#77499999999
11
#77500000000
b10100 3
#77599999999
01
#77699999999
11
#77700000000
b10011 3
#77799999999
01
#77899999999
11
#77900000000
b10010 3
#77999999999
01
#78099999999
11
#78100000000
b10001 3
#78199999999
01
#78299999999
11
#78300000000
b10000 3
#78399999999
01
#78499999999
11
#78500000000
b1111 3
#78599999999
01
#78699999999
11
#78700000000
b1110 3
#78799999999
01
#78899999999
11
#78900000000
b1101 3
#78999999999
01
#79099999999
11
#79100000000
b1100 3
#79199999999
01
#79299999999
11
#79300000000
b1011 3
#79399999999
01
#79499999999
11
#79500000000
b1010 3
#79599999999
01
#79699999999
11
#79700000000
b1001 3
#79799999999
01
#79899999999
11
#79900000000
b1000 3
#79999999999
01
#80099999999
11
#80100000000
b111 3
#80199999999
01
#80299999999
11
#80300000000
b110 3
#80399999999
01
#80499999999
11
#80500000000
b101 3
#80599999999
01
#80699999999
11
#80700000000
b100 3
#80799999999
01
#80899999999
11
#80900000000
b11 3
#80999999999
01
#81099999999
11
#81100000000
b10 3
#81199999999
01
#81299999999
11
#81300000000
b1 3
#81399999999
01
#81499999999
11
#81500000000
b0 3
#81599999999
01
#81699999999
11
#81700000000
12
b111111 3
#81799999999
01
#81899999999
11
#81900000000
02
b110001 3
#81999999999
01
#82099999999
11
#82100000000
b110000 3
#82199999999
01
#82299999999
11
#82300000000
b101111 3
#82399999999
01
#82499999999
11
#82500000000
b101110 3
#82599999999
01
#82699999999
11
#82700000000
b101101 3
#82799999999
01
#82899999999
11
#82900000000
b101100 3
#82999999999
01
#83099999999
11
#83100000000
b101011 3
#83199999999
01
#83299999999
11
#83300000000
b101010 3
#83399999999
01
#83499999999
11
#83500000000
b101001 3
#83599999999
01
#83699999999
11
#83700000000
b101000 3
#83799999999
01
#83899999999
11
#83900000000
b100111 3
#83999999999
01
#84099999999
11
#84100000000
b100110 3
#84199999999
01
#84299999999
11
#84300000000
b100101 3
#84399999999
01
#84499999999
11
#84500000000
b100100 3
#84599999999
01
#84699999999
11
#84700000000
b100011 3
#84799999999
01
#84899999999
11
#84900000000
b100010 3
#84999999999
01
#85099999999
11
#85100000000
b100001 3
#85199999999
01
#85299999999
11
#85300000000
b100000 3
#85399999999
01
#85499999999
11
#85500000000
b11111 3
#85599999999
01
#85699999999
11
#85700000000
b11110 3
#85799999999
01
#85899999999
11
#85900000000
b11101 3
#85999999999
01
#86099999999
11
#86100000000
b11100 3
#86199999999
01
#86299999999
11
#86300000000
b11011 3
#86399999999
01
#86499999999
11
#86500000000
b11010 3
#86599999999
01
#86699999999
11
#86700000000
b11001 3
#86799999999
01
#86899999999
11
#86900000000
b11000 3
#86999999999
01
#87099999999
11
#87100000000
b10111 3
#87199999999
01
#87299999999
11
#87300000000
b10110 3
#87399999999
01
#87499999999
11
#87500000000
b10101 3
#87599999999
01
#87699999999
11
#87700000000
b10100 3
#87799999999
01
#87899999999
11
#87900000000
b10011 3
#87999999999
01
#88099999999
11
#88100000000
b10010 3
#88199999999
01
#88299999999
11
#88300000000
b10001 3
#88399999999
01
#88499999999
11
#88500000000
b10000 3
#88599999999
01
#88699999999
11
#88700000000
b1111 3
#88799999999
01
#88899999999
11
#88900000000
b1110 3
#88999999999
01
#89099999999
11
#89100000000
b1101 3
#89199999999
01
#89299999999
11
#89300000000
b1100 3
#89399999999
01
#89499999999
11
#89500000000
b1011 3
#89599999999
01
#89699999999
11
#89700000000
b1010 3
#89799999999
01
#89899999999
11
#89900000000
b1001 3
#89999999999
01
#90099999999
11
#90100000000
b1000 3
#90199999999
01
#90299999999
11
#90300000000
b111 3
#90399999999
01
#90499999999
11
#90500000000
b110 3
#90599999999
01
#90699999999
11
#90700000000
b101 3
#90799999999
01
#90899999999
11
#90900000000
b100 3
#90999999999
01
#91099999999
11
#91100000000
b11 3
#91199999999
01
#91299999999
11
#91300000000
b10 3
#91399999999
01
#91499999999
11
#91500000000
b1 3
#91599999999
01
#91699999999
11
#91700000000
b0 3
#91799999999
01
#91899999999
11
#91900000000
12
b111111 3
#91999999999
01
#92099999999
11
#92100000000
02
b110001 3
#92199999999
01
#92299999999
11
#92300000000
b110000 3
#92399999999
01
#92499999999
11
#92500000000
b101111 3
#92599999999
01
#92699999999
11
#92700000000
b101110 3
#92799999999
01
#92899999999
11
#92900000000
b101101 3
#92999999999
01
#93099999999
11
#93100000000
b101100 3
#93199999999
01
#93299999999
11
#93300000000
b101011 3
#93399999999
01
#93499999999
11
#93500000000
b101010 3
#93599999999
01
#93699999999
11
#93700000000
b101001 3
#93799999999
01
#93899999999
11
#93900000000
b101000 3
#93999999999
01
#94099999999
11
#94100000000
b100111 3
#94199999999
01
#94299999999
11
#94300000000
b100110 3
#94399999999
01
#94499999999
11
#94500000000
b100101 3
#94599999999
01
#94699999999
11
#94700000000
b100100 3
#94799999999
01
#94899999999
11
#94900000000
b100011 3
#94999999999
01
#95099999999
11
#95100000000
b100010 3
#95199999999
01
#95299999999
11
#95300000000
b100001 3
#95399999999
01
#95499999999
11
#95500000000
b100000 3
#95599999999
01
#95699999999
11
#95700000000
b11111 3
#95799999999
01
#95899999999
11
#95900000000
b11110 3
#95999999999
01
#96099999999
11
#96100000000
b11101 3
#96199999999
01
#96299999999
11
#96300000000
b11100 3
#96399999999
01
#96499999999
11
#96500000000
b11011 3
#96599999999
01
#96699999999
11
#96700000000
b11010 3
#96799999999
01
#96899999999
11
#96900000000
b11001 3
#96999999999
01
#97099999999
11
#97100000000
b11000 3
#97199999999
01
#97299999999
11
#97300000000
b10111 3
#97399999999
01
#97499999999
11
#97500000000
b10110 3
#97599999999
01
#97699999999
11
#97700000000
b10101 3
#97799999999
01
#97899999999
11
#97900000000
b10100 3
#97999999999
01
#98099999999
11
#98100000000
b10011 3
#98199999999
01
#98299999999
11
#98300000000
b10010 3
#98399999999
01
#98499999999
11
#98500000000
b10001 3
#98599999999
01
#98699999999
11
#98700000000
b10000 3
#98799999999
01
#98899999999
11
#98900000000
b1111 3
#98999999999
01
#99099999999
11
#99100000000
b1110 3
#99199999999
01
#99299999999
11
#99300000000
b1101 3
#99399999999
01
#99499999999
11
#99500000000
b1100 3
#99599999999
01
#99699999999
11
#99700000000
b1011 3
#99799999999
01
#99899999999
11
#99900000000
b1010 3
#99999999999
01
#100099999999
11
#100100000000
b1001 3
#100199999999
01
#100299999999
11
#100300000000
b1000 3
#100399999999
01
#100499999999
11
#100500000000
b111 3
#100599999999
01
#100699999999
11
#100700000000
b110 3
#100799999999
01
#100899999999
11
#100900000000
b101 3
#100999999999
01
#101099999999
11
#101100000000
b100 3
#101199999999
01
#101299999999
11
#101300000000
b11 3
#101399999999
01
#101499999999
11
#101500000000
b10 3
#101599999999
01
#101699999999
11
#101700000000
b1 3
#101799999999
01
#101899999999
11
#101900000000
b0 3
#101999999999
01
#102099999999
11
#102100000000
12
b111111 3
#102199999999
01
#102299999999
11
#102300000000
02
b110001 3
#102399999999
01
#102499999999
11
#102500000000
b110000 3
#102599999999
01
#102699999999
11
#102700000000
b101111 3
#102799999999
01
#102899999999
11
#102900000000
b101110 3
#102999999999
01
#103099999999
11
#103100000000
b101101 3
#103199999999
01
#103299999999
11
#103300000000
b101100 3
#103399999999
01
#103499999999
11
#103500000000
b101011 3
#103599999999
01
#103699999999
11
#103700000000
b101010 3
#103799999999
01
#103899999999
11
#103900000000
b101001 3
#103999999999
01
#104099999999
11
#104100000000
b101000 3
#104199999999
01
#104299999999
11
#104300000000
b100111 3
#104399999999
01
#104499999999
11
#104500000000
b100110 3
#104599999999
01
#104699999999
11
#104700000000
b100101 3
#104799999999
01
#104899999999
11
#104900000000
b100100 3
#104999999999
01
#105099999999
11
#105100000000
b100011 3
#105199999999
01
#105299999999
11
#105300000000
b100010 3
#105399999999
01
#105499999999
11
#105500000000
b100001 3
#105599999999
01
#105699999999
11
#105700000000
b100000 3
#105799999999
01
#105899999999
11
#105900000000
b11111 3
#105999999999
01
#106099999999
11
#106100000000
b11110 3
#106199999999
01
