vga.vcd
$comment Generated by nMigen $end
$date 2020-03-08 23:18:59.460853 $end
$timescale 100 ps $end
$scope module top $end
$var wire 1 0 U0_rst $end
$var wire 1 1 U0_clk $end
$var wire 10 2 hsync_count $end
$var wire 10 3 vsync_count $end
$var wire 1 4 hsync $end
$var wire 1 5 vsync $end
$var wire 1 6 x $end
$var wire 1 7 y $end
$var wire 1 8 tv_cond $end
$var wire 1 9 tv_out $end
$scope module U0 $end
$var wire 1 a ce $end
$var wire 1 b rst $end
$var wire 1 c clk $end
$var wire 0 d counter $end
$var wire 1 e enable $end
$upscope $end
$upscope $end
$enddefinitions $end
#0
$dumpvars
00
01
b0 2
b0 3
04
05
06
07
18
19
0a
0b
0c
b0 d
1e
$end
#100
11
1c
1a
#200
01
0c
#300
11
1c
#301
b1 2
16
#400
01
0c
#499
11
1c
#500
b10 2
06
#599
01
0c
#699
11
1c
#700
b11 2
16
#799
01
0c
#899
11
1c
#900
b100 2
06
#999
01
0c
#1099
11
1c
#1100
b101 2
16
#1199
01
0c
#1300
11
1c
#1301
b110 2
06
#1400
01
0c
#1500
11
1c
#1501
b111 2
16
#1600
01
0c
#1700
11
1c
#1701
b1000 2
06
#1800
01
0c
#1900
11
1c
#1901
b1001 2
16
#2000
01
0c
#2100
11
1c
#2101
b1010 2
06
#2200
01
0c
#2300
11
1c
#2301
b1011 2
16
#2400
01
0c
#2500
11
1c
#2501
b1100 2
06
#2600
01
0c
#2700
11
1c
#2701
b1101 2
16
#2800
01
0c
#2900
11
1c
#2901
b1110 2
06
#3000
01
0c
#3100
11
1c
#3101
b1111 2
16
#3200
01
0c
#3300
11
1c
#3301
b10000 2
06
#3400
01
0c
#3500
11
1c
#3501
b10001 2
16
#3600
01
0c
#3700
11
1c
#3701
b10010 2
06
#3800
01
0c
#3900
11
1c
#3901
b10011 2
16
#4000
01
0c
#4100
11
1c
#4101
b10100 2
06
#4200
01
0c
#4300
11
1c
#4301
b10101 2
16
#4400
01
0c
#4500
11
1c
#4501
b10110 2
06
#4600
01
0c
#4700
11
1c
#4701
b10111 2
16
#4800
01
0c
#4900
11
1c
#4901
b11000 2
06
#5000
01
0c
#5100
11
1c
#5101
b11001 2
16
#5200
01
0c
#5300
11
1c
#5301
b11010 2
06
#5400
01
0c
#5500
11
1c
#5501
b11011 2
16
#5600
01
0c
#5700
11
1c
#5701
b11100 2
06
#5800
01
0c
#5900
11
1c
#5901
b11101 2
16
#6000
01
0c
#6100
11
1c
#6101
b11110 2
06
#6200
01
0c
#6300
11
1c
#6301
b11111 2
16
#6400
01
0c
#6500
11
1c
#6501
b100000 2
06
#6600
01
0c
#6700
11
1c
#6701
b100001 2
16
#6800
01
0c
#6900
11
1c
#6901
b100010 2
06
#7000
01
0c
#7100
11
1c
#7101
b100011 2
16
#7200
01
0c
#7300
11
1c
#7301
b100100 2
06
#7400
01
0c
#7500
11
1c
#7501
b100101 2
16
#7600
01
0c
#7700
11
1c
#7701
b100110 2
06
#7800
01
0c
#7900
11
1c
#7901
b100111 2
16
#8000
01
0c
#8100
11
1c
#8101
b101000 2
06
#8200
01
0c
#8300
11
1c
#8301
b101001 2
16
#8400
01
0c
#8500
11
1c
#8501
b101010 2
06
#8600
01
0c
#8700
11
1c
#8701
b101011 2
16
#8800
01
0c
#8900
11
1c
#8901
b101100 2
06
#9000
01
0c
#9100
11
1c
#9101
b101101 2
16
#9200
01
0c
#9300
11
1c
#9301
b101110 2
06
#9400
01
0c
#9500
11
1c
#9501
b101111 2
16
#9600
01
0c
#9700
11
1c
#9701
b110000 2
06
#9800
01
0c
#9900
11
1c
#9901
b110001 2
16
#10000
01
0c
#10100
11
1c
#10101
b110010 2
06
#10200
01
0c
#10300
11
1c
#10301
b110011 2
16
#10400
01
0c
#10499
11
1c
#10500
b110100 2
06
#10599
01
0c
#10699
11
1c
#10700
b110101 2
16
#10799
01
0c
#10899
11
1c
#10900
b110110 2
06
#10999
01
0c
#11099
11
1c
#11100
b110111 2
16
#11199
01
0c
#11299
11
1c
#11300
b111000 2
06
#11399
01
0c
#11499
11
1c
#11500
b111001 2
16
#11599
01
0c
#11699
11
1c
#11700
b111010 2
06
#11799
01
0c
#11899
11
1c
#11900
b111011 2
16
#11999
01
0c
#12099
11
1c
#12100
b111100 2
06
#12199
01
0c
#12299
11
1c
#12300
b111101 2
16
#12399
01
0c
#12499
11
1c
#12500
b111110 2
06
#12599
01
0c
#12699
11
1c
#12700
b111111 2
16
#12799
01
0c
#12899
11
1c
#12900
b1000000 2
06
#12999
01
0c
#13099
11
1c
#13100
b1000001 2
16
#13199
01
0c
#13299
11
1c
#13300
b1000010 2
06
#13399
01
0c
#13499
11
1c
#13500
b1000011 2
16
#13599
01
0c
#13699
11
1c
#13700
b1000100 2
06
#13799
01
0c
#13899
11
1c
#13900
b1000101 2
16
#13999
01
0c
#14099
11
1c
#14100
b1000110 2
06
#14199
01
0c
#14299
11
1c
#14300
b1000111 2
16
#14399
01
0c
#14499
11
1c
#14500
b1001000 2
06
#14599
01
0c
#14699
11
1c
#14700
b1001001 2
16
#14799
01
0c
#14899
11
1c
#14900
b1001010 2
06
#14999
01
0c
#15099
11
1c
#15100
b1001011 2
16
#15199
01
0c
#15299
11
1c
#15300
b1001100 2
06
#15399
01
0c
#15499
11
1c
#15500
b1001101 2
16
#15599
01
0c
#15699
11
1c
#15700
b1001110 2
06
#15799
01
0c
#15899
11
1c
#15900
b1001111 2
16
#15999
01
0c
#16099
11
1c
#16100
b1010000 2
06
#16199
01
0c
#16299
11
1c
#16300
b1010001 2
16
#16399
01
0c
#16499
11
1c
#16500
b1010010 2
06
#16599
01
0c
#16699
11
1c
#16700
b1010011 2
16
#16799
01
0c
#16899
11
1c
#16900
b1010100 2
06
#16999
01
0c
#17099
11
1c
#17100
b1010101 2
16
#17199
01
0c
#17299
11
1c
#17300
b1010110 2
06
#17399
01
0c
#17499
11
1c
#17500
b1010111 2
16
#17599
01
0c
#17699
11
1c
#17700
b1011000 2
06
#17799
01
0c
#17899
11
1c
#17900
b1011001 2
16
#17999
01
0c
#18099
11
1c
#18100
b1011010 2
06
#18199
01
0c
#18299
11
1c
#18300
b1011011 2
16
#18399
01
0c
#18499
11
1c
#18500
b1011100 2
06
#18599
01
0c
#18699
11
1c
#18700
b1011101 2
16
#18799
01
0c
#18899
11
1c
#18900
b1011110 2
06
#18999
01
0c
#19099
11
1c
#19100
b1011111 2
16
#19199
01
0c
#19299
11
1c
#19300
b1100000 2
06
#19399
01
0c
#19499
11
1c
#19500
b1100001 2
16
#19599
01
0c
#19699
11
1c
#19700
b1100010 2
06
#19799
01
0c
#19899
11
1c
#19900
b1100011 2
16
#19999
01
0c
#20099
11
1c
#20100
b1100100 2
06
#20199
01
0c
#20299
11
1c
#20300
b1100101 2
16
#20399
01
0c
#20499
11
1c
#20500
b1100110 2
06
#20599
01
0c
#20699
11
1c
#20700
b1100111 2
16
#20799
01
0c
#20899
11
1c
#20900
b1101000 2
06
#20999
01
0c
#21099
11
1c
#21100
b1101001 2
16
#21199
01
0c
#21299
11
1c
#21300
b1101010 2
06
#21399
01
0c
#21499
11
1c
#21500
b1101011 2
16
#21599
01
0c
#21699
11
1c
#21700
b1101100 2
06
#21799
01
0c
#21899
11
1c
#21900
b1101101 2
16
#21999
01
0c
#22099
11
1c
#22100
b1101110 2
06
#22199
01
0c
#22299
11
1c
#22300
b1101111 2
16
#22399
01
0c
#22499
11
1c
#22500
b1110000 2
06
#22599
01
0c
#22699
11
1c
#22700
b1110001 2
16
#22799
01
0c
#22899
11
1c
#22900
b1110010 2
06
#22999
01
0c
#23099
11
1c
#23100
b1110011 2
16
#23199
01
0c
#23299
11
1c
#23300
b1110100 2
06
#23399
01
0c
#23499
11
1c
#23500
b1110101 2
16
#23599
01
0c
#23699
11
1c
#23700
b1110110 2
06
#23799
01
0c
#23899
11
1c
#23900
b1110111 2
16
#23999
01
0c
#24099
11
1c
#24100
b1111000 2
06
#24199
01
0c
#24299
11
1c
#24300
b1111001 2
16
#24399
01
0c
#24499
11
1c
#24500
b1111010 2
06
#24599
01
0c
#24699
11
1c
#24700
b1111011 2
16
#24799
01
0c
#24899
11
1c
#24900
b1111100 2
06
#24999
01
0c
#25099
11
1c
#25100
b1111101 2
16
#25199
01
0c
#25299
11
1c
#25300
b1111110 2
06
#25399
01
0c
#25499
11
1c
#25500
b1111111 2
16
#25599
01
0c
#25699
11
1c
#25700
b10000000 2
06
#25799
01
0c
#25899
11
1c
#25900
b10000001 2
16
#25999
01
0c
#26099
11
1c
#26100
b10000010 2
06
#26199
01
0c
#26299
11
1c
#26300
b10000011 2
16
#26399
01
0c
#26499
11
1c
#26500
b10000100 2
06
#26599
01
0c
#26699
11
1c
#26700
b10000101 2
16
#26799
01
0c
#26899
11
1c
#26900
b10000110 2
06
#26999
01
0c
#27099
11
1c
#27100
b10000111 2
16
#27199
01
0c
#27299
11
1c
#27300
b10001000 2
06
#27399
01
0c
#27499
11
1c
#27500
b10001001 2
16
#27599
01
0c
#27699
11
1c
#27700
b10001010 2
06
#27799
01
0c
#27899
11
1c
#27900
b10001011 2
16
#27999
01
0c
#28099
11
1c
#28100
b10001100 2
06
#28199
01
0c
#28299
11
1c
#28300
b10001101 2
16
#28399
01
0c
#28499
11
1c
#28500
b10001110 2
06
#28599
01
0c
#28699
11
1c
#28700
b10001111 2
16
#28799
01
0c
#28899
11
1c
#28900
b10010000 2
06
#28999
01
0c
#29099
11
1c
#29100
b10010001 2
16
#29199
01
0c
#29299
11
1c
#29300
b10010010 2
06
#29399
01
0c
#29499
11
1c
#29500
b10010011 2
16
#29599
01
0c
#29699
11
1c
#29700
b10010100 2
06
#29799
01
0c
#29899
11
1c
#29900
b10010101 2
16
#29999
01
0c
#30099
11
1c
#30100
b10010110 2
06
#30199
01
0c
#30299
11
1c
#30300
b10010111 2
16
#30399
01
0c
#30499
11
1c
#30500
b10011000 2
06
#30599
01
0c
#30699
11
1c
#30700
b10011001 2
16
#30799
01
0c
#30899
11
1c
#30900
b10011010 2
06
#30999
01
0c
#31099
11
1c
#31100
b10011011 2
16
#31199
01
0c
#31299
11
1c
#31300
b10011100 2
06
#31399
01
0c
#31499
11
1c
#31500
b10011101 2
16
#31599
01
0c
#31699
11
1c
#31700
b10011110 2
06
#31799
01
0c
#31899
11
1c
#31900
b10011111 2
16
#31999
01
0c
#32099
11
1c
#32100
b10100000 2
06
#32199
01
0c
#32299
11
1c
#32300
b10100001 2
16
#32399
01
0c
#32499
11
1c
#32500
b10100010 2
06
#32599
01
0c
#32699
11
1c
#32700
b10100011 2
16
#32799
01
0c
#32899
11
1c
#32900
b10100100 2
06
#32999
01
0c
#33099
11
1c
#33100
b10100101 2
16
#33199
01
0c
#33299
11
1c
#33300
b10100110 2
06
#33399
01
0c
#33499
11
1c
#33500
b10100111 2
16
#33599
01
0c
#33699
11
1c
#33700
b10101000 2
06
#33799
01
0c
#33899
11
1c
#33900
b10101001 2
16
#33999
01
0c
#34099
11
1c
#34100
b10101010 2
06
#34199
01
0c
#34299
11
1c
#34300
b10101011 2
16
#34399
01
0c
#34499
11
1c
#34500
b10101100 2
06
#34599
01
0c
#34699
11
1c
#34700
b10101101 2
16
#34799
01
0c
#34899
11
1c
#34900
b10101110 2
06
#34999
01
0c
#35099
11
1c
#35100
b10101111 2
16
#35199
01
0c
#35299
11
1c
#35300
b10110000 2
06
#35399
01
0c
#35499
11
1c
#35500
b10110001 2
16
#35599
01
0c
#35699
11
1c
#35700
b10110010 2
06
#35799
01
0c
#35899
11
1c
#35900
b10110011 2
16
#35999
01
0c
#36099
11
1c
#36100
b10110100 2
06
#36199
01
0c
#36299
11
1c
#36300
b10110101 2
16
#36399
01
0c
#36499
11
1c
#36500
b10110110 2
06
#36599
01
0c
#36699
11
1c
#36700
b10110111 2
16
#36799
01
0c
#36899
11
1c
#36900
b10111000 2
06
#36999
01
0c
#37099
11
1c
#37100
b10111001 2
16
#37199
01
0c
#37299
11
1c
#37300
b10111010 2
06
#37399
01
0c
#37499
11
1c
#37500
b10111011 2
16
#37599
01
0c
#37699
11
1c
#37700
b10111100 2
06
#37799
01
0c
#37899
11
1c
#37900
b10111101 2
16
#37999
01
0c
#38099
11
1c
#38100
b10111110 2
06
#38199
01
0c
#38299
11
1c
#38300
b10111111 2
16
#38399
01
0c
#38499
11
1c
#38500
b11000000 2
06
#38599
01
0c
#38699
11
1c
#38700
b11000001 2
16
#38799
01
0c
#38899
11
1c
#38900
b11000010 2
06
#38999
01
0c
#39099
11
1c
#39100
b11000011 2
16
#39199
01
0c
#39299
11
1c
#39300
b11000100 2
06
#39399
01
0c
#39499
11
1c
#39500
b11000101 2
16
#39599
01
0c
#39699
11
1c
#39700
b11000110 2
06
#39799
01
0c
#39899
11
1c
#39900
b11000111 2
16
#39999
01
0c
#40099
11
1c
#40100
b11001000 2
06
#40199
01
0c
#40299
11
1c
#40300
b11001001 2
16
#40399
01
0c
#40499
11
1c
#40500
b11001010 2
06
#40599
01
0c
#40699
11
1c
#40700
b11001011 2
16
#40799
01
0c
#40899
11
1c
#40900
b11001100 2
06
#40999
01
0c
#41099
11
1c
#41100
b11001101 2
16
#41199
01
0c
#41299
11
1c
#41300
b11001110 2
06
#41399
01
0c
#41499
11
1c
#41500
b11001111 2
16
#41599
01
0c
#41699
11
1c
#41700
b11010000 2
06
#41799
01
0c
#41899
11
1c
#41900
b11010001 2
16
#41999
01
0c
#42099
11
1c
#42100
b11010010 2
06
#42199
01
0c
#42299
11
1c
#42300
b11010011 2
16
#42399
01
0c
#42499
11
1c
#42500
b11010100 2
06
#42599
01
0c
#42699
11
1c
#42700
b11010101 2
16
#42799
01
0c
#42899
11
1c
#42900
b11010110 2
06
#42999
01
0c
#43099
11
1c
#43100
b11010111 2
16
#43199
01
0c
#43299
11
1c
#43300
b11011000 2
06
#43399
01
0c
#43499
11
1c
#43500
b11011001 2
16
#43599
01
0c
#43699
11
1c
#43700
b11011010 2
06
#43799
01
0c
#43899
11
1c
#43900
b11011011 2
16
#43999
01
0c
#44099
11
1c
#44100
b11011100 2
06
#44199
01
0c
#44299
11
1c
#44300
b11011101 2
16
#44399
01
0c
#44499
11
1c
#44500
b11011110 2
06
#44599
01
0c
#44699
11
1c
#44700
b11011111 2
16
#44799
01
0c
#44899
11
1c
#44900
b11100000 2
06
#44999
01
0c
#45099
11
1c
#45100
b11100001 2
16
#45199
01
0c
#45299
11
1c
#45300
b11100010 2
06
#45399
01
0c
#45499
11
1c
#45500
b11100011 2
16
#45599
01
0c
#45699
11
1c
#45700
b11100100 2
06
#45799
01
0c
#45899
11
1c
#45900
b11100101 2
16
#45999
01
0c
#46099
11
1c
#46100
b11100110 2
06
#46199
01
0c
#46299
11
1c
#46300
b11100111 2
16
#46399
01
0c
#46499
11
1c
#46500
b11101000 2
06
#46599
01
0c
#46699
11
1c
#46700
b11101001 2
16
#46799
01
0c
#46899
11
1c
#46900
b11101010 2
06
#46999
01
0c
#47099
11
1c
#47100
b11101011 2
16
#47199
01
0c
#47299
11
1c
#47300
b11101100 2
06
#47399
01
0c
#47499
11
1c
#47500
b11101101 2
16
#47599
01
0c
#47699
11
1c
#47700
b11101110 2
06
#47799
01
0c
#47899
11
1c
#47900
b11101111 2
16
#47999
01
0c
#48099
11
1c
#48100
b11110000 2
06
#48199
01
0c
#48299
11
1c
#48300
b11110001 2
16
#48399
01
0c
#48499
11
1c
#48500
b11110010 2
06
#48599
01
0c
#48699
11
1c
#48700
b11110011 2
16
#48799
01
0c
#48899
11
1c
#48900
b11110100 2
06
#48999
01
0c
#49099
11
1c
#49100
b11110101 2
16
#49199
01
0c
#49299
11
1c
#49300
b11110110 2
06
#49399
01
0c
#49499
11
1c
#49500
b11110111 2
16
#49599
01
0c
#49699
11
1c
#49700
b11111000 2
06
#49799
01
0c
#49899
11
1c
#49900
b11111001 2
16
#49999
01
0c
#50099
11
1c
#50100
b11111010 2
06
#50199
01
0c
#50299
11
1c
#50300
b11111011 2
16
#50399
01
0c
#50499
11
1c
#50500
b11111100 2
06
#50599
01
0c
#50699
11
1c
#50700
b11111101 2
16
#50799
01
0c
#50899
11
1c
#50900
b11111110 2
06
#50999
01
0c
#51099
11
1c
#51100
b11111111 2
16
#51199
01
0c
#51299
11
1c
#51300
b100000000 2
06
#51399
01
0c
#51499
11
1c
#51500
b100000001 2
16
#51599
01
0c
#51699
11
1c
#51700
b100000010 2
06
#51799
01
0c
#51899
11
1c
#51900
b100000011 2
16
#51999
01
0c
#52099
11
1c
#52100
b100000100 2
06
#52199
01
0c
#52299
11
1c
#52300
b100000101 2
16
#52399
01
0c
#52499
11
1c
#52500
b100000110 2
06
#52599
01
0c
#52699
11
1c
#52700
b100000111 2
16
#52799
01
0c
#52899
11
1c
#52900
b100001000 2
06
#52999
01
0c
#53099
11
1c
#53100
b100001001 2
16
#53199
01
0c
#53299
11
1c
#53300
b100001010 2
06
#53399
01
0c
#53499
11
1c
#53500
b100001011 2
16
#53599
01
0c
#53699
11
1c
#53700
b100001100 2
06
#53799
01
0c
#53899
11
1c
#53900
b100001101 2
16
#53999
01
0c
#54099
11
1c
#54100
b100001110 2
06
#54199
01
0c
#54299
11
1c
#54300
b100001111 2
16
#54399
01
0c
#54499
11
1c
#54500
b100010000 2
06
#54599
01
0c
#54699
11
1c
#54700
b100010001 2
16
#54799
01
0c
#54899
11
1c
#54900
b100010010 2
06
#54999
01
0c
#55099
11
1c
#55100
b100010011 2
16
#55199
01
0c
#55299
11
1c
#55300
b100010100 2
06
#55399
01
0c
#55499
11
1c
#55500
b100010101 2
16
#55599
01
0c
#55699
11
1c
#55700
b100010110 2
06
#55799
01
0c
#55899
11
1c
#55900
b100010111 2
16
#55999
01
0c
#56099
11
1c
#56100
b100011000 2
06
#56199
01
0c
#56299
11
1c
#56300
b100011001 2
16
#56399
01
0c
#56499
11
1c
#56500
b100011010 2
06
#56599
01
0c
#56699
11
1c
#56700
b100011011 2
16
#56799
01
0c
#56899
11
1c
#56900
b100011100 2
06
#56999
01
0c
#57099
11
1c
#57100
b100011101 2
16
#57199
01
0c
#57299
11
1c
#57300
b100011110 2
06
#57399
01
0c
#57499
11
1c
#57500
b100011111 2
16
#57599
01
0c
#57699
11
1c
#57700
b100100000 2
06
#57799
01
0c
#57899
11
1c
#57900
b100100001 2
16
#57999
01
0c
#58099
11
1c
#58100
b100100010 2
06
#58199
01
0c
#58299
11
1c
#58300
b100100011 2
16
#58399
01
0c
#58499
11
1c
#58500
b100100100 2
06
#58599
01
0c
#58699
11
1c
#58700
b100100101 2
16
#58799
01
0c
#58899
11
1c
#58900
b100100110 2
06
#58999
01
0c
#59099
11
1c
#59100
b100100111 2
16
#59199
01
0c
#59299
11
1c
#59300
b100101000 2
06
#59399
01
0c
#59499
11
1c
#59500
b100101001 2
16
#59599
01
0c
#59699
11
1c
#59700
b100101010 2
06
#59799
01
0c
#59899
11
1c
#59900
b100101011 2
16
#59999
01
0c
#60099
11
1c
#60100
b100101100 2
06
#60199
01
0c
#60299
11
1c
#60300
b100101101 2
16
#60399
01
0c
#60499
11
1c
#60500
b100101110 2
06
#60599
01
0c
#60699
11
1c
#60700
b100101111 2
16
#60799
01
0c
#60899
11
1c
#60900
b100110000 2
06
#60999
01
0c
#61099
11
1c
#61100
b100110001 2
16
#61199
01
0c
#61299
11
1c
#61300
b100110010 2
06
#61399
01
0c
#61499
11
1c
#61500
b100110011 2
16
#61599
01
0c
#61699
11
1c
#61700
b100110100 2
06
#61799
01
0c
#61899
11
1c
#61900
b100110101 2
16
#61999
01
0c
#62099
11
1c
#62100
b100110110 2
06
#62199
01
0c
#62299
11
1c
#62300
b100110111 2
16
#62399
01
0c
#62499
11
1c
#62500
b100111000 2
06
#62599
01
0c
#62699
11
1c
#62700
b100111001 2
16
#62799
01
0c
#62899
11
1c
#62900
b100111010 2
06
#62999
01
0c
#63099
11
1c
#63100
b100111011 2
16
#63199
01
0c
#63299
11
1c
#63300
b100111100 2
06
#63399
01
0c
#63499
11
1c
#63500
b100111101 2
16
#63599
01
0c
#63699
11
1c
#63700
b100111110 2
06
#63799
01
0c
#63899
11
1c
#63900
b100111111 2
16
#63999
01
0c
#64099
11
1c
#64100
b101000000 2
06
#64199
01
0c
#64299
11
1c
#64300
b101000001 2
16
#64399
01
0c
#64499
11
1c
#64500
b101000010 2
06
#64599
01
0c
#64699
11
1c
#64700
b101000011 2
16
#64799
01
0c
#64899
11
1c
#64900
b101000100 2
06
#64999
01
0c
#65099
11
1c
#65100
b101000101 2
16
#65199
01
0c
#65299
11
1c
#65300
b101000110 2
06
#65399
01
0c
#65499
11
1c
#65500
b101000111 2
16
#65599
01
0c
#65699
11
1c
#65700
b101001000 2
06
#65799
01
0c
#65899
11
1c
#65900
b101001001 2
16
#65999
01
0c
#66099
11
1c
#66100
b101001010 2
06
#66199
01
0c
#66299
11
1c
#66300
b101001011 2
16
#66399
01
0c
#66499
11
1c
#66500
b101001100 2
06
#66599
01
0c
#66699
11
1c
#66700
b101001101 2
16
#66799
01
0c
#66899
11
1c
#66900
b101001110 2
06
#66999
01
0c
#67099
11
1c
#67100
b101001111 2
16
#67199
01
0c
#67299
11
1c
#67300
b101010000 2
06
#67399
01
0c
#67499
11
1c
#67500
b101010001 2
16
#67599
01
0c
#67699
11
1c
#67700
b101010010 2
06
#67799
01
0c
#67899
11
1c
#67900
b101010011 2
16
#67999
01
0c
#68099
11
1c
#68100
b101010100 2
06
#68199
01
0c
#68299
11
1c
#68300
b101010101 2
16
#68399
01
0c
#68499
11
1c
#68500
b101010110 2
06
#68599
01
0c
#68699
11
1c
#68700
b101010111 2
16
#68799
01
0c
#68899
11
1c
#68900
b101011000 2
06
#68999
01
0c
#69099
11
1c
#69100
b101011001 2
16
#69199
01
0c
#69299
11
1c
#69300
b101011010 2
06
#69399
01
0c
#69499
11
1c
#69500
b101011011 2
16
#69599
01
0c
#69699
11
1c
#69700
b101011100 2
06
#69799
01
0c
#69899
11
1c
#69900
b101011101 2
16
#69999
01
0c
#70099
11
1c
#70100
b101011110 2
06
#70199
01
0c
#70299
11
1c
#70300
b101011111 2
16
#70399
01
0c
#70499
11
1c
#70500
b101100000 2
06
#70599
01
0c
#70699
11
1c
#70700
b101100001 2
16
#70799
01
0c
#70899
11
1c
#70900
b101100010 2
06
#70999
01
0c
#71099
11
1c
#71100
b101100011 2
16
#71199
01
0c
#71299
11
1c
#71300
b101100100 2
06
#71399
01
0c
#71499
11
1c
#71500
b101100101 2
16
#71599
01
0c
#71699
11
1c
#71700
b101100110 2
06
#71799
01
0c
#71899
11
1c
#71900
b101100111 2
16
#71999
01
0c
#72099
11
1c
#72100
b101101000 2
06
#72199
01
0c
#72299
11
1c
#72300
b101101001 2
16
#72399
01
0c
#72499
11
1c
#72500
b101101010 2
06
#72599
01
0c
#72699
11
1c
#72700
b101101011 2
16
#72799
01
0c
#72899
11
1c
#72900
b101101100 2
06
#72999
01
0c
#73099
11
1c
#73100
b101101101 2
16
#73199
01
0c
#73299
11
1c
#73300
b101101110 2
06
#73399
01
0c
#73499
11
1c
#73500
b101101111 2
16
#73599
01
0c
#73699
11
1c
#73700
b101110000 2
06
#73799
01
0c
#73899
11
1c
#73900
b101110001 2
16
#73999
01
0c
#74099
11
1c
#74100
b101110010 2
06
#74199
01
0c
#74299
11
1c
#74300
b101110011 2
16
#74399
01
0c
#74499
11
1c
#74500
b101110100 2
06
#74599
01
0c
#74699
11
1c
#74700
b101110101 2
16
#74799
01
0c
#74899
11
1c
#74900
b101110110 2
06
#74999
01
0c
#75099
11
1c
#75100
b101110111 2
16
#75199
01
0c
#75299
11
1c
#75300
b101111000 2
06
#75399
01
0c
#75499
11
1c
#75500
b101111001 2
16
#75599
01
0c
#75699
11
1c
#75700
b101111010 2
06
#75799
01
0c
#75899
11
1c
#75900
b101111011 2
16
#75999
01
0c
#76099
11
1c
#76100
b101111100 2
06
#76199
01
0c
#76299
11
1c
#76300
b101111101 2
16
#76399
01
0c
#76499
11
1c
#76500
b101111110 2
06
#76599
01
0c
#76699
11
1c
#76700
b101111111 2
16
#76799
01
0c
#76899
11
1c
#76900
b110000000 2
06
#76999
01
0c
#77099
11
1c
#77100
b110000001 2
16
#77199
01
0c
#77299
11
1c
#77300
b110000010 2
06
#77399
01
0c
#77499
11
1c
#77500
b110000011 2
16
#77599
01
0c
#77699
11
1c
#77700
b110000100 2
06
#77799
01
0c
#77899
11
1c
#77900
b110000101 2
16
#77999
01
0c
#78099
11
1c
#78100
b110000110 2
06
#78199
01
0c
#78299
11
1c
#78300
b110000111 2
16
#78399
01
0c
#78499
11
1c
#78500
b110001000 2
06
#78599
01
0c
#78699
11
1c
#78700
b110001001 2
16
#78799
01
0c
#78899
11
1c
#78900
b110001010 2
06
#78999
01
0c
#79099
11
1c
#79100
b110001011 2
16
#79199
01
0c
#79299
11
1c
#79300
b110001100 2
06
#79399
01
0c
#79499
11
1c
#79500
b110001101 2
16
#79599
01
0c
#79699
11
1c
#79700
b110001110 2
06
#79799
01
0c
#79899
11
1c
#79900
b110001111 2
16
#79999
01
0c
#80099
11
1c
#80100
b110010000 2
06
#80199
01
0c
#80299
11
1c
#80300
b110010001 2
16
#80399
01
0c
#80499
11
1c
#80500
b110010010 2
06
#80599
01
0c
#80699
11
1c
#80700
b110010011 2
16
#80799
01
0c
#80899
11
1c
#80900
b110010100 2
06
#80999
01
0c
#81099
11
1c
#81100
b110010101 2
16
#81199
01
0c
#81299
11
1c
#81300
b110010110 2
06
#81399
01
0c
#81499
11
1c
#81500
b110010111 2
16
#81599
01
0c
#81699
11
1c
#81700
b110011000 2
06
#81799
01
0c
#81899
11
1c
#81900
b110011001 2
16
#81999
01
0c
#82099
11
1c
#82100
b110011010 2
06
#82199
01
0c
#82299
11
1c
#82300
b110011011 2
16
#82399
01
0c
#82499
11
1c
#82500
b110011100 2
06
#82599
01
0c
#82699
11
1c
#82700
b110011101 2
16
#82799
01
0c
#82899
11
1c
#82900
b110011110 2
06
#82999
01
0c
#83099
11
1c
#83100
b110011111 2
16
#83199
01
0c
#83299
11
1c
#83300
b110100000 2
06
#83399
01
0c
#83499
11
1c
#83500
b110100001 2
16
#83599
01
0c
#83699
11
1c
#83700
b110100010 2
06
#83799
01
0c
#83899
11
1c
#83900
b110100011 2
16
#83999
01
0c
#84099
11
1c
#84100
b110100100 2
06
#84199
01
0c
#84299
11
1c
#84300
b110100101 2
16
#84399
01
0c
#84499
11
1c
#84500
b110100110 2
06
#84599
01
0c
#84699
11
1c
#84700
b110100111 2
16
#84799
01
0c
#84899
11
1c
#84900
b110101000 2
06
#84999
01
0c
#85099
11
1c
#85100
b110101001 2
16
#85199
01
0c
#85299
11
1c
#85300
b110101010 2
06
#85399
01
0c
#85499
11
1c
#85500
b110101011 2
16
#85599
01
0c
#85699
11
1c
#85700
b110101100 2
06
#85799
01
0c
#85899
11
1c
#85900
b110101101 2
16
#85999
01
0c
#86099
11
1c
#86100
b110101110 2
06
#86199
01
0c
#86299
11
1c
#86300
b110101111 2
16
#86399
01
0c
#86499
11
1c
#86500
b110110000 2
06
#86599
01
0c
#86699
11
1c
#86700
b110110001 2
16
#86799
01
0c
#86899
11
1c
#86900
b110110010 2
06
#86999
01
0c
#87099
11
1c
#87100
b110110011 2
16
#87199
01
0c
#87299
11
1c
#87300
b110110100 2
06
#87399
01
0c
#87499
11
1c
#87500
b110110101 2
16
#87599
01
0c
#87699
11
1c
#87700
b110110110 2
06
#87799
01
0c
#87899
11
1c
#87900
b110110111 2
16
#87999
01
0c
#88099
11
1c
#88100
b110111000 2
06
#88199
01
0c
#88299
11
1c
#88300
b110111001 2
16
#88399
01
0c
#88499
11
1c
#88500
b110111010 2
06
#88599
01
0c
#88699
11
1c
#88700
b110111011 2
16
#88799
01
0c
#88899
11
1c
#88900
b110111100 2
06
#88999
01
0c
#89099
11
1c
#89100
b110111101 2
16
#89199
01
0c
#89299
11
1c
#89300
b110111110 2
06
#89399
01
0c
#89499
11
1c
#89500
b110111111 2
16
#89599
01
0c
#89699
11
1c
#89700
b111000000 2
06
#89799
01
0c
#89899
11
1c
#89900
b111000001 2
16
#89999
01
0c
#90099
11
1c
#90100
b111000010 2
06
#90199
01
0c
#90299
11
1c
#90300
b111000011 2
16
#90399
01
0c
#90499
11
1c
#90500
b111000100 2
06
#90599
01
0c
#90699
11
1c
#90700
b111000101 2
16
#90799
01
0c
#90899
11
1c
#90900
b111000110 2
06
#90999
01
0c
#91099
11
1c
#91100
b111000111 2
16
#91199
01
0c
#91299
11
1c
#91300
b111001000 2
06
#91399
01
0c
#91499
11
1c
#91500
b111001001 2
16
#91599
01
0c
#91699
11
1c
#91700
b111001010 2
06
#91799
01
0c
#91899
11
1c
#91900
b111001011 2
16
#91999
01
0c
#92099
11
1c
#92100
b111001100 2
06
#92199
01
0c
#92299
11
1c
#92300
b111001101 2
16
#92399
01
0c
#92499
11
1c
#92500
b111001110 2
06
#92599
01
0c
#92699
11
1c
#92700
b111001111 2
16
#92799
01
0c
#92899
11
1c
#92900
b111010000 2
06
#92999
01
0c
#93099
11
1c
#93100
b111010001 2
16
#93199
01
0c
#93299
11
1c
#93300
b111010010 2
06
#93399
01
0c
#93499
11
1c
#93500
b111010011 2
16
#93599
01
0c
#93699
11
1c
#93700
b111010100 2
06
#93799
01
0c
#93899
11
1c
#93900
b111010101 2
16
#93999
01
0c
#94099
11
1c
#94100
b111010110 2
06
#94199
01
0c
#94299
11
1c
#94300
b111010111 2
16
#94399
01
0c
#94499
11
1c
#94500
b111011000 2
06
#94599
01
0c
#94699
11
1c
#94700
b111011001 2
16
#94799
01
0c
#94899
11
1c
#94900
b111011010 2
06
